<svg width="24" height="24" viewBox="0 0 24 24" fill="none" xmlns="http://www.w3.org/2000/svg">
<g clip-path="url(#clip0)">
<path d="M16.5615 11.4511L16.5615 11.451C17.3299 10.3178 17.6675 8.97812 17.5563 7.64029C17.4419 6.26557 16.8537 4.98711 15.8719 3.98902C13.4632 1.54054 9.57076 1.66886 7.30704 4.12287C7.13793 4.30624 6.85225 4.31776 6.66897 4.14864L16.5615 11.4511ZM16.5615 11.4511C16.4216 11.6575 16.4754 11.9382 16.6818 12.0782L16.5615 11.4511ZM15.4323 2.4548C12.6184 0.578395 8.89053 1.07422 6.64319 3.51055C6.47407 3.69384 6.48564 3.97956 6.66894 4.14862L15.4323 2.4548ZM15.4323 2.4548C16.0721 1.27719 17.3155 0.518896 18.6859 0.518896C20.3138 0.518896 21.7453 1.59193 22.2216 3.11858H22.2597C23.2746 3.11858 24.1002 3.94368 24.1002 4.95812C24.1002 5.44941 23.9086 5.91186 23.5611 6.25943L23.5611 6.25944C23.2135 6.60696 22.751 6.79858 22.2597 6.79858H18.3487C18.5724 7.92166 18.5032 9.0657 18.1927 10.1009H20.0676C20.6611 10.1009 21.2195 10.3322 21.6392 10.7519C22.0754 11.1881 22.3065 11.7691 22.2893 12.3864C22.2561 13.5788 21.2459 14.5456 20.0389 14.5456H17.8474C17.598 14.5456 17.3959 14.3434 17.3959 14.0941C17.3959 13.8447 17.598 13.6425 17.8474 13.6425H20.0389C20.7638 13.6425 21.367 13.0653 21.3865 12.3613C21.4074 11.6106 20.8056 11.004 20.0676 11.004H17.8487C17.6949 11.3352 17.5143 11.6551 17.309 11.9579C17.2217 12.0867 17.0793 12.1561 16.9349 12.1561L15.4323 2.4548ZM22.9225 5.6208C22.9225 5.62081 22.9225 5.62081 22.9225 5.62082C22.7452 5.79806 22.5102 5.89541 22.2597 5.89541H18.1027C17.728 4.82062 17.0717 3.81552 16.1605 3.01359C16.621 2.05062 17.6012 1.42202 18.686 1.42202C20.0117 1.42202 21.1657 2.36362 21.4296 3.66021C21.4724 3.8706 21.6574 4.02171 21.8721 4.02171H22.2598C22.7766 4.02171 23.1971 4.44191 23.1971 4.95808L22.9225 5.6208ZM22.9225 5.6208C23.0996 5.44361 23.197 5.20856 23.1971 4.95812L22.9225 5.6208Z" fill="white" stroke="white" stroke-width="0.2"/>
<path d="M16.1066 14.5455V14.5456H16.2066C16.456 14.5456 16.6581 14.3434 16.6581 14.094C16.6581 13.8447 16.456 13.6425 16.2066 13.6425H14.4864C14.0758 13.1039 13.6362 12.5983 13.2259 12.1952L13.1608 12.2614L13.2259 12.1952C12.8327 11.8089 12.5641 11.61 12.375 11.5078C12.2797 11.4564 12.2034 11.4288 12.1404 11.4144C12.0768 11.4 12.0304 11.4 12.0003 11.4H12C11.8081 11.4 11.5929 11.4981 11.3774 11.6411C11.1587 11.7862 10.9253 11.9873 10.6937 12.2139C10.244 12.654 9.79247 13.1992 9.4572 13.6424H3.35391C1.94748 13.6424 0.803125 12.4981 0.803125 11.0916C0.803125 9.68551 1.94746 8.54133 3.35391 8.54133V8.44133L3.35392 8.54133H3.35396H3.35413H3.35479H3.35741L3.36768 8.54133L3.40713 8.54133L3.55175 8.54132L4.02481 8.54127C4.39175 8.54121 4.82175 8.5411 5.07384 8.54086C5.43557 8.54081 5.73049 8.25725 5.7448 7.89577C5.78025 7.00089 6.00986 6.14901 6.4274 5.36305L6.42741 5.36304C6.54438 5.14283 6.46078 4.86941 6.2405 4.75241C6.02024 4.63534 5.74695 4.71924 5.6299 4.93931L5.62987 4.93936C5.18292 5.78072 4.92254 6.68759 4.8547 7.63786L3.94299 7.63816L3.52498 7.6382L3.39965 7.63821L3.36571 7.63821L3.3569 7.63821H3.35466H3.3541H3.35395H3.35392L3.35391 7.73821V7.63821C1.44933 7.63821 -0.1 9.18732 -0.1 11.0916C-0.1 12.9962 1.44932 14.5455 3.35391 14.5455H8.82881C8.13718 15.6251 7.30161 17.245 7.30161 18.7827C7.30161 21.3735 9.40921 23.4811 12 23.4811C14.5909 23.4811 16.6985 21.3735 16.6985 18.7827C16.6984 17.2614 15.8371 15.6333 15.1255 14.5455H16.1066ZM12 22.5781C9.90737 22.5781 8.20469 20.8754 8.20469 18.7828C8.20469 18.1236 8.42025 16.6794 9.90759 14.5577C10.3818 13.8812 10.8488 13.3393 11.2309 12.9543C11.4221 12.7618 11.5913 12.6092 11.729 12.499C11.8407 12.4095 11.9267 12.352 11.9843 12.3221C12.0441 12.358 12.1326 12.4232 12.2464 12.5202C12.3857 12.6388 12.5567 12.7994 12.7489 12.9977C13.1333 13.3942 13.6003 13.9388 14.0661 14.5944C14.3904 15.051 14.8238 15.7188 15.1757 16.4641C15.5284 17.2108 15.7952 18.0271 15.7953 18.7827C15.7953 20.8754 14.0926 22.5781 12 22.5781Z" fill="white" stroke="white" stroke-width="0.2"/>
<path d="M20.1623 16.2772C20.0694 16.2772 19.9686 16.3146 19.8692 16.3697C19.7679 16.426 19.6587 16.5061 19.5464 16.6038C19.3216 16.7993 19.0773 17.0718 18.8514 17.3845C18.4025 18.0061 18.0113 18.8085 18.0113 19.5024C18.0113 20.6885 18.9762 21.6533 20.1623 21.6533C21.3484 21.6533 22.3133 20.6885 22.3133 19.5024C22.3133 18.8196 21.9119 18.0169 21.4589 17.3932C21.2309 17.0792 20.9856 16.8048 20.7631 16.6077C20.6519 16.5093 20.5445 16.4284 20.4461 16.3715C20.3502 16.3161 20.2521 16.2772 20.1623 16.2772ZM20.1623 20.7502C19.4744 20.7502 18.9145 20.1903 18.9145 19.5024C18.9145 19.0944 19.1422 18.5945 19.4281 18.1498C19.6814 17.756 19.9688 17.4232 20.152 17.2571C20.3412 17.4317 20.6345 17.7722 20.8918 18.1687C21.1814 18.6149 21.4101 19.1092 21.4101 19.5024C21.4101 20.1903 20.8503 20.7502 20.1623 20.7502Z" fill="white" stroke="white" stroke-width="0.2"/>
<path d="M2.5117 17.4081L2.5117 17.4081C2.60389 17.2788 2.80989 17.0018 3.04926 16.7561C3.16885 16.6334 3.29928 16.5158 3.4302 16.4283C3.55895 16.3422 3.69989 16.2772 3.83808 16.2772C4.02119 16.2772 4.20391 16.364 4.51846 16.673L2.5117 17.4081ZM2.5117 17.4081C2.35894 17.6224 2.15369 17.9401 1.98631 18.3055M2.5117 17.4081L1.98631 18.3055M5.14066 17.405C4.94403 17.1341 4.72334 16.8743 4.51847 16.673L5.14066 17.405ZM5.14066 17.405C5.29772 17.6213 5.50885 17.9416 5.68104 18.308M5.14066 17.405L5.68104 18.308M1.98631 18.3055C1.81936 18.67 1.68711 19.0884 1.68711 19.5024M1.98631 18.3055L1.68711 19.5024M1.68711 19.5024C1.68711 20.6885 2.65194 21.6533 3.83808 21.6533M1.68711 19.5024L3.83808 21.6533M3.83808 21.6533C5.02421 21.6533 5.98905 20.6885 5.98905 19.5024M3.83808 21.6533L5.98905 19.5024M5.98905 19.5024C5.98905 19.0917 5.85273 18.6734 5.68104 18.308M5.98905 19.5024L5.68104 18.308M3.83812 20.7502C3.1502 20.7502 2.59028 20.1903 2.59028 19.5024C2.59028 19.0944 2.81799 18.5945 3.10392 18.1498C3.35722 17.756 3.64458 17.4232 3.8278 17.2571C4.01701 17.4317 4.31033 17.7723 4.5676 18.1687C4.8572 18.6149 5.08597 19.1093 5.08597 19.5024C5.08597 20.1903 4.52606 20.7502 3.83812 20.7502Z" fill="white" stroke="white" stroke-width="0.2"/>
<path d="M13.309 19.0641C12.6957 19.0641 12.1969 19.5629 12.1969 20.1761C12.1969 20.7894 12.6957 21.2882 13.309 21.2882C13.9223 21.2882 14.4211 20.7894 14.4211 20.1761C14.4211 19.5629 13.9223 19.0641 13.309 19.0641ZM13.309 20.3851C13.1938 20.3851 13.1 20.2912 13.1 20.1761C13.1 20.061 13.1938 19.9672 13.309 19.9672C13.4241 19.9672 13.518 20.061 13.518 20.1761C13.518 20.2913 13.4241 20.3851 13.309 20.3851Z" fill="white" stroke="white" stroke-width="0.2"/>
<path d="M11.8039 17.3893C11.8039 16.776 11.305 16.2772 10.6918 16.2772C10.0785 16.2772 9.57969 16.776 9.57969 17.3893C9.57969 18.0025 10.0785 18.5014 10.6918 18.5014C11.305 18.5014 11.8039 18.0026 11.8039 17.3893ZM10.4828 17.3893C10.4828 17.2742 10.5766 17.1803 10.6918 17.1803C10.8069 17.1803 10.9008 17.2742 10.9008 17.3893C10.9008 17.5044 10.8069 17.5982 10.6918 17.5982C10.5767 17.5982 10.4828 17.5044 10.4828 17.3893Z" fill="white" stroke="white" stroke-width="0.2"/>
<path d="M13.8605 16.9219C13.6841 16.7456 13.3983 16.7456 13.2219 16.9219L10.1387 20.005C9.96236 20.1814 9.96235 20.4673 10.1387 20.6436C10.3151 20.8199 10.601 20.82 10.7773 20.6436L13.8605 17.5605C13.8605 17.5605 13.8605 17.5605 13.8605 17.5605C14.0369 17.3842 14.0369 17.0982 13.8605 16.9219L13.7898 16.9926L13.8605 16.9219Z" fill="white" stroke="white" stroke-width="0.2"/>
</g>
<defs>
<clipPath id="clip0">
<rect width="24" height="24" fill="white"/>
</clipPath>
</defs>
</svg>
